{
  "agile_team": {
    "id": 68,
    "name": "sst_networking_core"
  },
  "alias": [],
  "assigned_to": "Hangbin Liu",
  "assigned_to_detail": {
    "active": true,
    "email": "haliu",
    "id": 304939,
    "insider": true,
    "name": "haliu",
    "real_name": "Hangbin Liu"
  },
  "attachments": [],
  "blocks": [],
  "blocks_all": [],
  "bug_agile_pool": {
    "pool_id": 578
  },
  "bug_classes": "bz_CLOSED bz_unspecified bz_unspecified bz_closed bz_public",
  "cc": [
    "Jianwen Ji",
    "Zhang Kexin",
    "sushil kulkarni"
  ],
  "cc_detail": [
    {
      "active": true,
      "email": "jiji",
      "id": 374504,
      "insider": true,
      "name": "jiji",
      "real_name": "Jianwen Ji"
    },
    {
      "active": true,
      "email": "kzhang",
      "id": 208114,
      "insider": true,
      "name": "kzhang",
      "real_name": "Zhang Kexin"
    },
    {
      "active": true,
      "email": "sukulkar",
      "id": 400177,
      "insider": true,
      "name": "sukulkar",
      "real_name": "sushil kulkarni"
    }
  ],
  "cf_clone_of": null,
  "cf_doc_type": "If docs needed, set a value",
  "cf_embargoed": null,
  "cf_environment": "",
  "cf_fixed_in": "",
  "cf_last_closed": "2023-09-21T14:20:00Z",
  "cf_release_notes": "",
  "cf_target_upstream_version": "",
  "cf_type": "Bug",
  "classification": "Red Hat",
  "clone_ids": [],
  "clones": [],
  "component": [
    "kernel"
  ],
  "creation_time": "2023-02-16T15:31:22Z",
  "creator": "Thomas Haller",
  "creator_detail": {
    "active": true,
    "email": "thaller",
    "id": 355583,
    "insider": true,
    "name": "thaller",
    "real_name": "Thomas Haller"
  },
  "data_category": "Public",
  "deadline": null,
  "dependent_products": [],
  "depends_on": [],
  "depends_on_all": [],
  "description": "For the \"src\" attribute (RTA_SRC) of a route, kernel requires that such an address is actually configured. It doesn't need to be on the same interface though...\n\nWhen the address gets removed, kernel will also remove the route with the corresponding \"src\" attribute. However, it fails to send RTM_DELROUTE notification:\n\n>>>>\n#!/bin/bash\n\nset -ex\n\nip netns del x &>/dev/null || :\nip netns add x\n\nip -netns x link add net1 type dummy\nip -netns x link add net2 type dummy\nip -netns x link set net1 up\nip -netns x link set net2 up\n\nip -netns x addr add 192.168.5.5/24 dev net1\nip -netns x route append 7.7.7.0/24 dev net2 src 192.168.5.5\n\nip -netns x -4 addr\nip -netns x -4 route\n\nip -netns x monitor addr &\nip -netns x monitor route &\n\nsleep 0.2\n\nip -netns x addr del 192.168.5.5/24 dev net1\nip -netns x -4 route\n\nsleep 0.2\n\nkill -- $(jobs -p)\nwait\nwait\n<<<<\n\n\nOn rhel-9.2 (5.14.0-267.el9.x86_64) and Fedora 37 (6.1.8-200.fc37.x86_64) above script gives:\n\n<<<<\n+ ip netns del x\n+ ip netns add x\n+ ip -netns x link add net1 type dummy\n+ ip -netns x link add net2 type dummy\n+ ip -netns x link set net1 up\n+ ip -netns x link set net2 up\n+ ip -netns x addr add 192.168.5.5/24 dev net1\n+ ip -netns x route append 7.7.7.0/24 dev net2 src 192.168.5.5\n+ ip -netns x -4 addr\n2: net1: <BROADCAST,NOARP,UP,LOWER_UP> mtu 1500 qdisc noqueue state UNKNOWN group default qlen 1000\n    inet 192.168.5.5/24 scope global net1\n       valid_lft forever preferred_lft forever\n+ ip -netns x -4 route\n7.7.7.0/24 dev net2 scope link src 192.168.5.5 \n192.168.5.0/24 dev net1 proto kernel scope link src 192.168.5.5 \n+ ip -netns x monitor addr\n+ sleep 0.2\n+ ip -netns x monitor route\n+ ip -netns x addr del 192.168.5.5/24 dev net1\nDeleted 2: net1    inet 192.168.5.5/24 scope global net1\nDeleted 192.168.5.0/24 dev net1 proto kernel scope link src 192.168.5.5 \n       valid_lft forever preferred_lft forever\nDeleted broadcast 192.168.5.255 dev net1 table local proto kernel scope link src 192.168.5.5 \nDeleted local 192.168.5.5 dev net1 table local proto kernel scope host src 192.168.5.5 \n+ ip -netns x -4 route\n+ sleep 0.2\n++ jobs -p\n+ kill -- 18111 18112\n+ wait\n+ wait\n>>>\n\n\nNote that there is no notification about the route on net2 being removed, but it's not longer there.\n\n\n\nSending accurate events is important to NetworkManager, because it keeps a cache of the routes. Missing/Wrong events mean that the cache becomes inconsistent.",
  "docs_contact": "",
  "dupe_of": null,
  "duplicate_ids": [],
  "duplicates": [],
  "external_bugs": [
    {
      "bug_id": 2170513,
      "ext_bz_bug_id": "RHEL-6012",
      "ext_bz_id": 55,
      "ext_description": "None",
      "ext_priority": "None",
      "ext_status": "Migrated",
      "id": 2265682,
      "is_migration_link": 0,
      "type": {
        "can_get": 0,
        "can_send": 0,
        "description": "Red Hat Issue Tracker",
        "full_url": "https://issues.redhat.com/browse/%id%",
        "id": 55,
        "must_send": 0,
        "send_once": 0,
        "type": "JIRA",
        "url": "https://issues.redhat.com/"
      }
    },
    {
      "bug_id": 2170513,
      "ext_bz_bug_id": "RHEL-6013",
      "ext_bz_id": 55,
      "ext_description": "None",
      "ext_priority": "None",
      "ext_status": "Migrated",
      "id": 2265683,
      "is_migration_link": 1,
      "type": {
        "can_get": 0,
        "can_send": 0,
        "description": "Red Hat Issue Tracker",
        "full_url": "https://issues.redhat.com/browse/%id%",
        "id": 55,
        "must_send": 0,
        "send_once": 0,
        "type": "JIRA",
        "url": "https://issues.redhat.com/"
      }
    },
    {
      "bug_id": 2170513,
      "ext_bz_bug_id": "RHELPLAN-148927",
      "ext_bz_id": 55,
      "ext_description": "None",
      "ext_priority": "None",
      "ext_status": "None",
      "id": 2160831,
      "is_migration_link": 0,
      "type": {
        "can_get": 0,
        "can_send": 0,
        "description": "Red Hat Issue Tracker",
        "full_url": "https://issues.redhat.com/browse/%id%",
        "id": 55,
        "must_send": 0,
        "send_once": 0,
        "type": "JIRA",
        "url": "https://issues.redhat.com/"
      }
    }
  ],
  "flags": [],
  "groups": [],
  "id": 2170513,
  "is_cc_accessible": true,
  "is_confirmed": true,
  "is_creator_accessible": true,
  "is_open": false,
  "keywords": [
    "MigratedToJIRA"
  ],
  "last_change_time": "2023-09-21T14:20:00Z",
  "last_visit_ts": "",
  "locked": 0,
  "longdescs.count": 5,
  "op_sys": "Unspecified",
  "percentage_complete": null,
  "platform": "Unspecified",
  "pool": {
    "id": 578,
    "is_active": 1,
    "name": "sst_networking_core_rhel_9",
    "team": {
      "current_sprint_id": 153,
      "group_id": 466,
      "id": 68,
      "is_active": 1,
      "name": "sst_networking_core",
      "process_id": 1,
      "responsibility_query": "?f1=bug_agile_pool.pool_id&v1=-1&o1=equals&resolution=---"
    }
  },
  "pool_order": 1242,
  "priority": "unspecified",
  "product": "Red Hat Enterprise Linux 9",
  "qa_contact": "Jianlin Shi",
  "qa_contact_detail": {
    "active": true,
    "email": "jishi",
    "id": 379210,
    "insider": true,
    "name": "jishi",
    "real_name": "Jianlin Shi"
  },
  "relevance": null,
  "resolution": "MIGRATED",
  "severity": "unspecified",
  "status": "CLOSED",
  "sub_components": {
    "kernel": [
      "Networking"
    ]
  },
  "summary": "Missing netlink event for removed route with src attribute",
  "tags": [],
  "target_milestone": "rc",
  "target_release": [
    "---"
  ],
  "url": "",
  "version": [
    "9.2"
  ],
  "votes": 0,
  "whiteboard": ""
}
