{
  "object_kind": "merge_request",
  "event_type": "merge_request",
  "user": {
    "id": 8143989,
    "name": "CKI KWF Bot",
    "username": "cki-kwf-bot",
    "avatar_url": "https://secure.gravatar.com/avatar/55bc3c05b8c8bc13f5cc7cc5e71fad72?s=80&d=identicon",
    "email": "[REDACTED]"
  },
  "project": {
    "id": 24152864,
    "name": "centos-stream-9",
    "description": "Source-git repo for the kernel.\r\n\r\nSee [documentation](https://gitlab.com/redhat/centos-stream/src/kernel/documentation) for information.  See [bugreports](https://gitlab.com/redhat/centos-stream/src/kernel/bugreports) for issues and mailing list info.",
    "web_url": "https://gitlab.com/redhat/centos-stream/src/kernel/centos-stream-9",
    "avatar_url": null,
    "git_ssh_url": "git@gitlab.com:redhat/centos-stream/src/kernel/centos-stream-9.git",
    "git_http_url": "https://gitlab.com/redhat/centos-stream/src/kernel/centos-stream-9.git",
    "namespace": "kernel",
    "visibility_level": 20,
    "path_with_namespace": "redhat/centos-stream/src/kernel/centos-stream-9",
    "default_branch": "main",
    "ci_config_path": "",
    "homepage": "https://gitlab.com/redhat/centos-stream/src/kernel/centos-stream-9",
    "url": "git@gitlab.com:redhat/centos-stream/src/kernel/centos-stream-9.git",
    "ssh_url": "git@gitlab.com:redhat/centos-stream/src/kernel/centos-stream-9.git",
    "http_url": "https://gitlab.com/redhat/centos-stream/src/kernel/centos-stream-9.git"
  },
  "object_attributes": {
    "assignee_id": 8637363,
    "author_id": 8637363,
    "created_at": "2023-06-30 12:54:53 UTC",
    "description": "JIRA: https://issues.redhat.com/browse/RHEL-5740  \nDepends: !2704 \n\nNew channels in the 5GHz band are available in certain regulations (UNII-4). Enable them for rtw89.\n\nThe commit c8d89bf6b82f (\"wifi: rtw89: 8851b: add 8851B basic chip_info\") is included only to allow applying the patches cleanly. In CS/RHEL it's still dead code because 8851B devices are still not enabled in CONFIGs, so it is no problem.\n\nSigned-off-by: Íñigo Huguet <ihuguet@redhat.com>",
    "draft": false,
    "head_pipeline_id": 1040864503,
    "id": 233939385,
    "iid": 2756,
    "last_edited_at": "2023-10-18 09:37:31 UTC",
    "last_edited_by_id": 8637363,
    "merge_commit_sha": null,
    "merge_error": null,
    "merge_params": {
      "force_remove_source_branch": "1"
    },
    "merge_status": "can_be_merged",
    "merge_user_id": null,
    "merge_when_pipeline_succeeds": false,
    "milestone_id": 3258829,
    "source_branch": "rtw89_unii4",
    "source_project_id": 29655085,
    "state_id": 1,
    "target_branch": "main",
    "target_project_id": 24152864,
    "time_estimate": 0,
    "title": "wifi: Include U-NII-4 5.9GHz channels support for Realtek 8852BE",
    "updated_at": "2023-10-18 10:40:08 UTC",
    "updated_by_id": 8143989,
    "url": "https://gitlab.com/redhat/centos-stream/src/kernel/centos-stream-9/-/merge_requests/2756",
    "source": {
      "id": 29655085,
      "name": "kernel-cs9",
      "description": "Source-git repo for the kernel.\n\nSee [documentation](https://gitlab.com/redhat/centos-stream/src/kernel/documentation) for information.  See [bugreports](https://gitlab.com/redhat/centos-stream/src/kernel/bugreports) for issues and mailing list info.",
      "web_url": "https://gitlab.com/ihuguet-rh/kernel-cs9",
      "avatar_url": null,
      "git_ssh_url": "git@gitlab.com:ihuguet-rh/kernel-cs9.git",
      "git_http_url": "https://gitlab.com/ihuguet-rh/kernel-cs9.git",
      "namespace": "Íñigo Huguet",
      "visibility_level": 20,
      "path_with_namespace": "ihuguet-rh/kernel-cs9",
      "default_branch": "main",
      "ci_config_path": "",
      "homepage": "https://gitlab.com/ihuguet-rh/kernel-cs9",
      "url": "git@gitlab.com:ihuguet-rh/kernel-cs9.git",
      "ssh_url": "git@gitlab.com:ihuguet-rh/kernel-cs9.git",
      "http_url": "https://gitlab.com/ihuguet-rh/kernel-cs9.git"
    },
    "target": {
      "id": 24152864,
      "name": "centos-stream-9",
      "description": "Source-git repo for the kernel.\r\n\r\nSee [documentation](https://gitlab.com/redhat/centos-stream/src/kernel/documentation) for information.  See [bugreports](https://gitlab.com/redhat/centos-stream/src/kernel/bugreports) for issues and mailing list info.",
      "web_url": "https://gitlab.com/redhat/centos-stream/src/kernel/centos-stream-9",
      "avatar_url": null,
      "git_ssh_url": "git@gitlab.com:redhat/centos-stream/src/kernel/centos-stream-9.git",
      "git_http_url": "https://gitlab.com/redhat/centos-stream/src/kernel/centos-stream-9.git",
      "namespace": "kernel",
      "visibility_level": 20,
      "path_with_namespace": "redhat/centos-stream/src/kernel/centos-stream-9",
      "default_branch": "main",
      "ci_config_path": "",
      "homepage": "https://gitlab.com/redhat/centos-stream/src/kernel/centos-stream-9",
      "url": "git@gitlab.com:redhat/centos-stream/src/kernel/centos-stream-9.git",
      "ssh_url": "git@gitlab.com:redhat/centos-stream/src/kernel/centos-stream-9.git",
      "http_url": "https://gitlab.com/redhat/centos-stream/src/kernel/centos-stream-9.git"
    },
    "last_commit": {
      "id": "223770a1791aae06ae2929e0eece4d03a80a171a",
      "message": "wifi: rtw89: support U-NII-4 channels on 5GHz band\n\nJIRA: https://issues.redhat.com/browse/RHEL-5740\n\ncommit e3b77c06c8863a53a0d80f7dcaff923c590e3edd\nAuthor: Zong-Zhe Yang <kevin_yang@realtek.com>\nDate:   Mon May 8 16:12:11 2023 +0800\n\n    wifi: rtw89: support U-NII-4 channels on 5GHz band\n\n    U-NII-4 band, i.e 5.9GHz channels, can be supported by chip 8852C, 8852B\n    and 8851B. But, it is not supported by chip 8852A. Flag support_unii4 is\n    added in chip info and defined by chip accordingly to indicate that.\n    We reference this flag of runtime chip to decide whether to register\n    5.9GHz channels.\n\n    After that, we consider if U-NII-4 band is allowed by our regulatory\n    rule of U-NII-4. If chip::support_unii4 but not regd::allow_unii4,\n    we stll do not register 5.9GHz channels.\n\n    Signed-off-by: Zong-Zhe Yang <kevin_yang@realtek.com>\n    Signed-off-by: Ping-Ke Shih <pkshih@realtek.com>\n    Signed-off-by: Kalle Valo <kvalo@kernel.org>\n    Link: https://lore.kernel.org/r/20230508081211.38760-4-pkshih@realtek.com\n\nSigned-off-by: Íñigo Huguet <ihuguet@redhat.com>\n",
      "title": "wifi: rtw89: support U-NII-4 channels on 5GHz band",
      "timestamp": "2023-10-18T11:36:36+02:00",
      "url": "https://gitlab.com/redhat/centos-stream/src/kernel/centos-stream-9/-/commit/223770a1791aae06ae2929e0eece4d03a80a171a",
      "author": {
        "name": "Íñigo Huguet",
        "email": "ihuguet@redhat.com"
      }
    },
    "work_in_progress": false,
    "total_time_spent": 0,
    "time_change": 0,
    "human_total_time_spent": null,
    "human_time_change": null,
    "human_time_estimate": null,
    "assignee_ids": [
      8637363
    ],
    "reviewer_ids": [],
    "labels": [
      {
        "id": 21460558,
        "title": "Acks::OK",
        "color": "#428BCA",
        "project_id": null,
        "created_at": "2021-08-27 15:39:30 UTC",
        "updated_at": "2021-09-01 12:53:46 UTC",
        "template": false,
        "description": "This MR has been approved by reviewers.",
        "type": "GroupLabel",
        "group_id": 10873929,
        "lock_on_merge": false
      },
      {
        "id": 21525221,
        "title": "Acks::wireless::OK",
        "color": "#428BCA",
        "project_id": null,
        "created_at": "2021-09-01 16:55:30 UTC",
        "updated_at": "2021-09-01 16:55:30 UTC",
        "template": false,
        "description": "This MR has been approved by reviewers in the wireless group.",
        "type": "GroupLabel",
        "group_id": 10873929,
        "lock_on_merge": false
      },
      {
        "id": 21518292,
        "title": "Bugzilla::OK",
        "color": "#428BCA",
        "project_id": null,
        "created_at": "2021-09-01 09:14:30 UTC",
        "updated_at": "2021-09-01 09:14:30 UTC",
        "template": false,
        "description": "The BZs in this MR have valid state for this release.",
        "type": "GroupLabel",
        "group_id": 10873929,
        "lock_on_merge": false
      },
      {
        "id": 29409485,
        "title": "CKI::Running",
        "color": "#CAC542",
        "project_id": null,
        "created_at": "2023-03-02 17:21:11 UTC",
        "updated_at": "2023-05-09 14:59:52 UTC",
        "template": false,
        "description": "One or more of the required CKI pipelines for this MR is still running.",
        "type": "GroupLabel",
        "group_id": 10873929,
        "lock_on_merge": false
      },
      {
        "id": 29409749,
        "title": "CKI_64k::Running",
        "color": "#CAC542",
        "project_id": null,
        "created_at": "2023-03-02 17:49:59 UTC",
        "updated_at": "2023-03-02 17:49:59 UTC",
        "template": false,
        "description": "This MR's latest CKI_64k pipeline is still running.",
        "type": "GroupLabel",
        "group_id": 10873929,
        "lock_on_merge": false
      },
      {
        "id": 30163298,
        "title": "CKI_Automotive::Warning",
        "color": "#6242ca",
        "project_id": null,
        "created_at": "2023-05-04 12:51:08 UTC",
        "updated_at": "2023-05-04 12:51:08 UTC",
        "template": false,
        "description": "This MR's latest non-blocking CKI_Automotive pipeline has failed.",
        "type": "GroupLabel",
        "group_id": 10873929,
        "lock_on_merge": false
      },
      {
        "id": 30219736,
        "title": "CKI_CentOS::Running",
        "color": "#CAC542",
        "project_id": null,
        "created_at": "2023-05-09 14:47:28 UTC",
        "updated_at": "2023-05-09 14:47:28 UTC",
        "template": false,
        "description": "This MR's latest CKI_CentOS pipeline is still running.",
        "type": "GroupLabel",
        "group_id": 10873929,
        "lock_on_merge": false
      },
      {
        "id": 30219735,
        "title": "CKI_RHEL::Running",
        "color": "#CAC542",
        "project_id": null,
        "created_at": "2023-05-09 14:47:26 UTC",
        "updated_at": "2023-05-09 14:47:26 UTC",
        "template": false,
        "description": "This MR's latest CKI_RHEL pipeline is still running.",
        "type": "GroupLabel",
        "group_id": 10873929,
        "lock_on_merge": false
      },
      {
        "id": 29409750,
        "title": "CKI_RT::Running",
        "color": "#CAC542",
        "project_id": null,
        "created_at": "2023-03-02 17:50:02 UTC",
        "updated_at": "2023-03-02 17:50:02 UTC",
        "template": false,
        "description": "This MR's latest CKI_RT pipeline is still running.",
        "type": "GroupLabel",
        "group_id": 10873929,
        "lock_on_merge": false
      },
      {
        "id": 21599523,
        "title": "CodeChanged::v2",
        "color": "#013220",
        "project_id": null,
        "created_at": "2021-09-07 10:09:01 UTC",
        "updated_at": "2021-09-07 10:09:01 UTC",
        "template": false,
        "description": "Code changed in v2 of this Merge Request.",
        "type": "GroupLabel",
        "group_id": 10873929,
        "lock_on_merge": false
      },
      {
        "id": 21460611,
        "title": "CommitRefs::OK",
        "color": "#428BCA",
        "project_id": null,
        "created_at": "2021-08-27 15:45:56 UTC",
        "updated_at": "2021-09-01 09:14:30 UTC",
        "template": false,
        "description": "All commits in this MR have valid upstream or RHEL-only commit references.",
        "type": "GroupLabel",
        "group_id": 10873929,
        "lock_on_merge": false
      },
      {
        "id": 21460498,
        "title": "Dependencies::OK",
        "color": "#428BCA",
        "project_id": null,
        "created_at": "2021-08-27 15:35:09 UTC",
        "updated_at": "2021-09-01 04:33:31 UTC",
        "template": false,
        "description": "This MR does not depend on any other MR.",
        "type": "GroupLabel",
        "group_id": 10873929,
        "lock_on_merge": false
      },
      {
        "id": 30384606,
        "title": "ExternalCI::OK",
        "color": "#428BCA",
        "project_id": null,
        "created_at": "2023-05-23 18:44:10 UTC",
        "updated_at": "2023-05-23 18:44:10 UTC",
        "template": false,
        "description": "All the subsystem-required testing has been completed.",
        "type": "GroupLabel",
        "group_id": 10873929,
        "lock_on_merge": false
      },
      {
        "id": 30376714,
        "title": "ExternalCI::lnst::OK",
        "color": "#428BCA",
        "project_id": null,
        "created_at": "2023-05-23 14:55:12 UTC",
        "updated_at": "2023-05-23 14:55:12 UTC",
        "template": false,
        "description": "The subsystem-required lnst testing has been completed.",
        "type": "GroupLabel",
        "group_id": 10873929,
        "lock_on_merge": false
      },
      {
        "id": 31078448,
        "title": "Fixes::OK",
        "color": "#428BCA",
        "project_id": null,
        "created_at": "2023-07-21 16:50:15 UTC",
        "updated_at": "2023-07-21 16:50:15 UTC",
        "template": false,
        "description": "All known upstream fixes for commits in this MR have been included.",
        "type": "GroupLabel",
        "group_id": 10873929,
        "lock_on_merge": false
      },
      {
        "id": 27471844,
        "title": "JIRA::NeedsTesting",
        "color": "#CAC542",
        "project_id": null,
        "created_at": "2022-10-21 06:45:28 UTC",
        "updated_at": "2023-09-28 19:26:25 UTC",
        "template": false,
        "description": "This MR is waiting for QE to test.  QE will set 'Preliminary Testing: Pass' in each JIRA Issue and any dependent Issues as they complete testing.",
        "type": "GroupLabel",
        "group_id": 10873929,
        "lock_on_merge": false
      },
      {
        "id": 29850651,
        "title": "Merge::OK",
        "color": "#428BCA",
        "project_id": null,
        "created_at": "2023-04-06 17:01:48 UTC",
        "updated_at": "2023-04-06 19:31:29 UTC",
        "template": false,
        "description": "This Merge Request merges cleanly into it's target branch.",
        "type": "GroupLabel",
        "group_id": 10873929,
        "lock_on_merge": false
      },
      {
        "id": 21460574,
        "title": "Signoff::OK",
        "color": "#428BCA",
        "project_id": null,
        "created_at": "2021-08-27 15:40:50 UTC",
        "updated_at": "2021-09-01 04:33:33 UTC",
        "template": false,
        "description": "The author has acknowledged the DCO (https://developercertificate.org).",
        "type": "GroupLabel",
        "group_id": 10873929,
        "lock_on_merge": false
      },
      {
        "id": 21525323,
        "title": "Subsystem:wireless",
        "color": "#778899",
        "project_id": null,
        "created_at": "2021-09-01 16:55:51 UTC",
        "updated_at": "2021-09-01 16:55:51 UTC",
        "template": false,
        "description": "An MR that affects code related to wireless.",
        "type": "GroupLabel",
        "group_id": 10873929,
        "lock_on_merge": false
      },
      {
        "id": 22697860,
        "title": "TargetedTestingMissing",
        "color": "#6242ca",
        "project_id": null,
        "created_at": "2021-11-22 19:50:18 UTC",
        "updated_at": "2022-02-10 17:42:34 UTC",
        "template": false,
        "description": "This MR's head pipeline does not include any Targeted Tests.",
        "type": "GroupLabel",
        "group_id": 10873929,
        "lock_on_merge": false
      }
    ],
    "state": "opened",
    "blocking_discussions_resolved": true,
    "first_contribution": false,
    "detailed_merge_status": "mergeable",
    "action": "update"
  },
  "labels": [
    {
      "id": 21460558,
      "title": "Acks::OK",
      "color": "#428BCA",
      "project_id": null,
      "created_at": "2021-08-27 15:39:30 UTC",
      "updated_at": "2021-09-01 12:53:46 UTC",
      "template": false,
      "description": "This MR has been approved by reviewers.",
      "type": "GroupLabel",
      "group_id": 10873929,
      "lock_on_merge": false
    },
    {
      "id": 21525221,
      "title": "Acks::wireless::OK",
      "color": "#428BCA",
      "project_id": null,
      "created_at": "2021-09-01 16:55:30 UTC",
      "updated_at": "2021-09-01 16:55:30 UTC",
      "template": false,
      "description": "This MR has been approved by reviewers in the wireless group.",
      "type": "GroupLabel",
      "group_id": 10873929,
      "lock_on_merge": false
    },
    {
      "id": 21518292,
      "title": "Bugzilla::OK",
      "color": "#428BCA",
      "project_id": null,
      "created_at": "2021-09-01 09:14:30 UTC",
      "updated_at": "2021-09-01 09:14:30 UTC",
      "template": false,
      "description": "The BZs in this MR have valid state for this release.",
      "type": "GroupLabel",
      "group_id": 10873929,
      "lock_on_merge": false
    },
    {
      "id": 29409485,
      "title": "CKI::Running",
      "color": "#CAC542",
      "project_id": null,
      "created_at": "2023-03-02 17:21:11 UTC",
      "updated_at": "2023-05-09 14:59:52 UTC",
      "template": false,
      "description": "One or more of the required CKI pipelines for this MR is still running.",
      "type": "GroupLabel",
      "group_id": 10873929,
      "lock_on_merge": false
    },
    {
      "id": 29409749,
      "title": "CKI_64k::Running",
      "color": "#CAC542",
      "project_id": null,
      "created_at": "2023-03-02 17:49:59 UTC",
      "updated_at": "2023-03-02 17:49:59 UTC",
      "template": false,
      "description": "This MR's latest CKI_64k pipeline is still running.",
      "type": "GroupLabel",
      "group_id": 10873929,
      "lock_on_merge": false
    },
    {
      "id": 30163298,
      "title": "CKI_Automotive::Warning",
      "color": "#6242ca",
      "project_id": null,
      "created_at": "2023-05-04 12:51:08 UTC",
      "updated_at": "2023-05-04 12:51:08 UTC",
      "template": false,
      "description": "This MR's latest non-blocking CKI_Automotive pipeline has failed.",
      "type": "GroupLabel",
      "group_id": 10873929,
      "lock_on_merge": false
    },
    {
      "id": 30219736,
      "title": "CKI_CentOS::Running",
      "color": "#CAC542",
      "project_id": null,
      "created_at": "2023-05-09 14:47:28 UTC",
      "updated_at": "2023-05-09 14:47:28 UTC",
      "template": false,
      "description": "This MR's latest CKI_CentOS pipeline is still running.",
      "type": "GroupLabel",
      "group_id": 10873929,
      "lock_on_merge": false
    },
    {
      "id": 30219735,
      "title": "CKI_RHEL::Running",
      "color": "#CAC542",
      "project_id": null,
      "created_at": "2023-05-09 14:47:26 UTC",
      "updated_at": "2023-05-09 14:47:26 UTC",
      "template": false,
      "description": "This MR's latest CKI_RHEL pipeline is still running.",
      "type": "GroupLabel",
      "group_id": 10873929,
      "lock_on_merge": false
    },
    {
      "id": 29409750,
      "title": "CKI_RT::Running",
      "color": "#CAC542",
      "project_id": null,
      "created_at": "2023-03-02 17:50:02 UTC",
      "updated_at": "2023-03-02 17:50:02 UTC",
      "template": false,
      "description": "This MR's latest CKI_RT pipeline is still running.",
      "type": "GroupLabel",
      "group_id": 10873929,
      "lock_on_merge": false
    },
    {
      "id": 21599523,
      "title": "CodeChanged::v2",
      "color": "#013220",
      "project_id": null,
      "created_at": "2021-09-07 10:09:01 UTC",
      "updated_at": "2021-09-07 10:09:01 UTC",
      "template": false,
      "description": "Code changed in v2 of this Merge Request.",
      "type": "GroupLabel",
      "group_id": 10873929,
      "lock_on_merge": false
    },
    {
      "id": 21460611,
      "title": "CommitRefs::OK",
      "color": "#428BCA",
      "project_id": null,
      "created_at": "2021-08-27 15:45:56 UTC",
      "updated_at": "2021-09-01 09:14:30 UTC",
      "template": false,
      "description": "All commits in this MR have valid upstream or RHEL-only commit references.",
      "type": "GroupLabel",
      "group_id": 10873929,
      "lock_on_merge": false
    },
    {
      "id": 21460498,
      "title": "Dependencies::OK",
      "color": "#428BCA",
      "project_id": null,
      "created_at": "2021-08-27 15:35:09 UTC",
      "updated_at": "2021-09-01 04:33:31 UTC",
      "template": false,
      "description": "This MR does not depend on any other MR.",
      "type": "GroupLabel",
      "group_id": 10873929,
      "lock_on_merge": false
    },
    {
      "id": 30384606,
      "title": "ExternalCI::OK",
      "color": "#428BCA",
      "project_id": null,
      "created_at": "2023-05-23 18:44:10 UTC",
      "updated_at": "2023-05-23 18:44:10 UTC",
      "template": false,
      "description": "All the subsystem-required testing has been completed.",
      "type": "GroupLabel",
      "group_id": 10873929,
      "lock_on_merge": false
    },
    {
      "id": 30376714,
      "title": "ExternalCI::lnst::OK",
      "color": "#428BCA",
      "project_id": null,
      "created_at": "2023-05-23 14:55:12 UTC",
      "updated_at": "2023-05-23 14:55:12 UTC",
      "template": false,
      "description": "The subsystem-required lnst testing has been completed.",
      "type": "GroupLabel",
      "group_id": 10873929,
      "lock_on_merge": false
    },
    {
      "id": 31078448,
      "title": "Fixes::OK",
      "color": "#428BCA",
      "project_id": null,
      "created_at": "2023-07-21 16:50:15 UTC",
      "updated_at": "2023-07-21 16:50:15 UTC",
      "template": false,
      "description": "All known upstream fixes for commits in this MR have been included.",
      "type": "GroupLabel",
      "group_id": 10873929,
      "lock_on_merge": false
    },
    {
      "id": 27471844,
      "title": "JIRA::NeedsTesting",
      "color": "#CAC542",
      "project_id": null,
      "created_at": "2022-10-21 06:45:28 UTC",
      "updated_at": "2023-09-28 19:26:25 UTC",
      "template": false,
      "description": "This MR is waiting for QE to test.  QE will set 'Preliminary Testing: Pass' in each JIRA Issue and any dependent Issues as they complete testing.",
      "type": "GroupLabel",
      "group_id": 10873929,
      "lock_on_merge": false
    },
    {
      "id": 29850651,
      "title": "Merge::OK",
      "color": "#428BCA",
      "project_id": null,
      "created_at": "2023-04-06 17:01:48 UTC",
      "updated_at": "2023-04-06 19:31:29 UTC",
      "template": false,
      "description": "This Merge Request merges cleanly into it's target branch.",
      "type": "GroupLabel",
      "group_id": 10873929,
      "lock_on_merge": false
    },
    {
      "id": 21460574,
      "title": "Signoff::OK",
      "color": "#428BCA",
      "project_id": null,
      "created_at": "2021-08-27 15:40:50 UTC",
      "updated_at": "2021-09-01 04:33:33 UTC",
      "template": false,
      "description": "The author has acknowledged the DCO (https://developercertificate.org).",
      "type": "GroupLabel",
      "group_id": 10873929,
      "lock_on_merge": false
    },
    {
      "id": 21525323,
      "title": "Subsystem:wireless",
      "color": "#778899",
      "project_id": null,
      "created_at": "2021-09-01 16:55:51 UTC",
      "updated_at": "2021-09-01 16:55:51 UTC",
      "template": false,
      "description": "An MR that affects code related to wireless.",
      "type": "GroupLabel",
      "group_id": 10873929,
      "lock_on_merge": false
    },
    {
      "id": 22697860,
      "title": "TargetedTestingMissing",
      "color": "#6242ca",
      "project_id": null,
      "created_at": "2021-11-22 19:50:18 UTC",
      "updated_at": "2022-02-10 17:42:34 UTC",
      "template": false,
      "description": "This MR's head pipeline does not include any Targeted Tests.",
      "type": "GroupLabel",
      "group_id": 10873929,
      "lock_on_merge": false
    }
  ],
  "changes": {
    "labels": {
      "previous": [
        {
          "id": 21460558,
          "title": "Acks::OK",
          "color": "#428BCA",
          "project_id": null,
          "created_at": "2021-08-27 15:39:30 UTC",
          "updated_at": "2021-09-01 12:53:46 UTC",
          "template": false,
          "description": "This MR has been approved by reviewers.",
          "type": "GroupLabel",
          "group_id": 10873929,
          "lock_on_merge": false
        },
        {
          "id": 21525221,
          "title": "Acks::wireless::OK",
          "color": "#428BCA",
          "project_id": null,
          "created_at": "2021-09-01 16:55:30 UTC",
          "updated_at": "2021-09-01 16:55:30 UTC",
          "template": false,
          "description": "This MR has been approved by reviewers in the wireless group.",
          "type": "GroupLabel",
          "group_id": 10873929,
          "lock_on_merge": false
        },
        {
          "id": 21518292,
          "title": "Bugzilla::OK",
          "color": "#428BCA",
          "project_id": null,
          "created_at": "2021-09-01 09:14:30 UTC",
          "updated_at": "2021-09-01 09:14:30 UTC",
          "template": false,
          "description": "The BZs in this MR have valid state for this release.",
          "type": "GroupLabel",
          "group_id": 10873929,
          "lock_on_merge": false
        },
        {
          "id": 29409485,
          "title": "CKI::Running",
          "color": "#CAC542",
          "project_id": null,
          "created_at": "2023-03-02 17:21:11 UTC",
          "updated_at": "2023-05-09 14:59:52 UTC",
          "template": false,
          "description": "One or more of the required CKI pipelines for this MR is still running.",
          "type": "GroupLabel",
          "group_id": 10873929,
          "lock_on_merge": false
        },
        {
          "id": 29409749,
          "title": "CKI_64k::Running",
          "color": "#CAC542",
          "project_id": null,
          "created_at": "2023-03-02 17:49:59 UTC",
          "updated_at": "2023-03-02 17:49:59 UTC",
          "template": false,
          "description": "This MR's latest CKI_64k pipeline is still running.",
          "type": "GroupLabel",
          "group_id": 10873929,
          "lock_on_merge": false
        },
        {
          "id": 30163298,
          "title": "CKI_Automotive::Warning",
          "color": "#6242ca",
          "project_id": null,
          "created_at": "2023-05-04 12:51:08 UTC",
          "updated_at": "2023-05-04 12:51:08 UTC",
          "template": false,
          "description": "This MR's latest non-blocking CKI_Automotive pipeline has failed.",
          "type": "GroupLabel",
          "group_id": 10873929,
          "lock_on_merge": false
        },
        {
          "id": 30219736,
          "title": "CKI_CentOS::Running",
          "color": "#CAC542",
          "project_id": null,
          "created_at": "2023-05-09 14:47:28 UTC",
          "updated_at": "2023-05-09 14:47:28 UTC",
          "template": false,
          "description": "This MR's latest CKI_CentOS pipeline is still running.",
          "type": "GroupLabel",
          "group_id": 10873929,
          "lock_on_merge": false
        },
        {
          "id": 30219735,
          "title": "CKI_RHEL::Running",
          "color": "#CAC542",
          "project_id": null,
          "created_at": "2023-05-09 14:47:26 UTC",
          "updated_at": "2023-05-09 14:47:26 UTC",
          "template": false,
          "description": "This MR's latest CKI_RHEL pipeline is still running.",
          "type": "GroupLabel",
          "group_id": 10873929,
          "lock_on_merge": false
        },
        {
          "id": 29409750,
          "title": "CKI_RT::Running",
          "color": "#CAC542",
          "project_id": null,
          "created_at": "2023-03-02 17:50:02 UTC",
          "updated_at": "2023-03-02 17:50:02 UTC",
          "template": false,
          "description": "This MR's latest CKI_RT pipeline is still running.",
          "type": "GroupLabel",
          "group_id": 10873929,
          "lock_on_merge": false
        },
        {
          "id": 21599523,
          "title": "CodeChanged::v2",
          "color": "#013220",
          "project_id": null,
          "created_at": "2021-09-07 10:09:01 UTC",
          "updated_at": "2021-09-07 10:09:01 UTC",
          "template": false,
          "description": "Code changed in v2 of this Merge Request.",
          "type": "GroupLabel",
          "group_id": 10873929,
          "lock_on_merge": false
        },
        {
          "id": 21460611,
          "title": "CommitRefs::OK",
          "color": "#428BCA",
          "project_id": null,
          "created_at": "2021-08-27 15:45:56 UTC",
          "updated_at": "2021-09-01 09:14:30 UTC",
          "template": false,
          "description": "All commits in this MR have valid upstream or RHEL-only commit references.",
          "type": "GroupLabel",
          "group_id": 10873929,
          "lock_on_merge": false
        },
        {
          "id": 21460498,
          "title": "Dependencies::OK",
          "color": "#428BCA",
          "project_id": null,
          "created_at": "2021-08-27 15:35:09 UTC",
          "updated_at": "2021-09-01 04:33:31 UTC",
          "template": false,
          "description": "This MR does not depend on any other MR.",
          "type": "GroupLabel",
          "group_id": 10873929,
          "lock_on_merge": false
        },
        {
          "id": 30384606,
          "title": "ExternalCI::OK",
          "color": "#428BCA",
          "project_id": null,
          "created_at": "2023-05-23 18:44:10 UTC",
          "updated_at": "2023-05-23 18:44:10 UTC",
          "template": false,
          "description": "All the subsystem-required testing has been completed.",
          "type": "GroupLabel",
          "group_id": 10873929,
          "lock_on_merge": false
        },
        {
          "id": 30376714,
          "title": "ExternalCI::lnst::OK",
          "color": "#428BCA",
          "project_id": null,
          "created_at": "2023-05-23 14:55:12 UTC",
          "updated_at": "2023-05-23 14:55:12 UTC",
          "template": false,
          "description": "The subsystem-required lnst testing has been completed.",
          "type": "GroupLabel",
          "group_id": 10873929,
          "lock_on_merge": false
        },
        {
          "id": 31078448,
          "title": "Fixes::OK",
          "color": "#428BCA",
          "project_id": null,
          "created_at": "2023-07-21 16:50:15 UTC",
          "updated_at": "2023-07-21 16:50:15 UTC",
          "template": false,
          "description": "All known upstream fixes for commits in this MR have been included.",
          "type": "GroupLabel",
          "group_id": 10873929,
          "lock_on_merge": false
        },
        {
          "id": 27471844,
          "title": "JIRA::NeedsTesting",
          "color": "#CAC542",
          "project_id": null,
          "created_at": "2022-10-21 06:45:28 UTC",
          "updated_at": "2023-09-28 19:26:25 UTC",
          "template": false,
          "description": "This MR is waiting for QE to test.  QE will set 'Preliminary Testing: Pass' in each JIRA Issue and any dependent Issues as they complete testing.",
          "type": "GroupLabel",
          "group_id": 10873929,
          "lock_on_merge": false
        },
        {
          "id": 29850651,
          "title": "Merge::OK",
          "color": "#428BCA",
          "project_id": null,
          "created_at": "2023-04-06 17:01:48 UTC",
          "updated_at": "2023-04-06 19:31:29 UTC",
          "template": false,
          "description": "This Merge Request merges cleanly into it's target branch.",
          "type": "GroupLabel",
          "group_id": 10873929,
          "lock_on_merge": false
        },
        {
          "id": 21460574,
          "title": "Signoff::OK",
          "color": "#428BCA",
          "project_id": null,
          "created_at": "2021-08-27 15:40:50 UTC",
          "updated_at": "2021-09-01 04:33:33 UTC",
          "template": false,
          "description": "The author has acknowledged the DCO (https://developercertificate.org).",
          "type": "GroupLabel",
          "group_id": 10873929,
          "lock_on_merge": false
        },
        {
          "id": 21525323,
          "title": "Subsystem:wireless",
          "color": "#778899",
          "project_id": null,
          "created_at": "2021-09-01 16:55:51 UTC",
          "updated_at": "2021-09-01 16:55:51 UTC",
          "template": false,
          "description": "An MR that affects code related to wireless.",
          "type": "GroupLabel",
          "group_id": 10873929,
          "lock_on_merge": false
        }
      ],
      "current": [
        {
          "id": 21460558,
          "title": "Acks::OK",
          "color": "#428BCA",
          "project_id": null,
          "created_at": "2021-08-27 15:39:30 UTC",
          "updated_at": "2021-09-01 12:53:46 UTC",
          "template": false,
          "description": "This MR has been approved by reviewers.",
          "type": "GroupLabel",
          "group_id": 10873929,
          "lock_on_merge": false
        },
        {
          "id": 21525221,
          "title": "Acks::wireless::OK",
          "color": "#428BCA",
          "project_id": null,
          "created_at": "2021-09-01 16:55:30 UTC",
          "updated_at": "2021-09-01 16:55:30 UTC",
          "template": false,
          "description": "This MR has been approved by reviewers in the wireless group.",
          "type": "GroupLabel",
          "group_id": 10873929,
          "lock_on_merge": false
        },
        {
          "id": 21518292,
          "title": "Bugzilla::OK",
          "color": "#428BCA",
          "project_id": null,
          "created_at": "2021-09-01 09:14:30 UTC",
          "updated_at": "2021-09-01 09:14:30 UTC",
          "template": false,
          "description": "The BZs in this MR have valid state for this release.",
          "type": "GroupLabel",
          "group_id": 10873929,
          "lock_on_merge": false
        },
        {
          "id": 29409485,
          "title": "CKI::Running",
          "color": "#CAC542",
          "project_id": null,
          "created_at": "2023-03-02 17:21:11 UTC",
          "updated_at": "2023-05-09 14:59:52 UTC",
          "template": false,
          "description": "One or more of the required CKI pipelines for this MR is still running.",
          "type": "GroupLabel",
          "group_id": 10873929,
          "lock_on_merge": false
        },
        {
          "id": 29409749,
          "title": "CKI_64k::Running",
          "color": "#CAC542",
          "project_id": null,
          "created_at": "2023-03-02 17:49:59 UTC",
          "updated_at": "2023-03-02 17:49:59 UTC",
          "template": false,
          "description": "This MR's latest CKI_64k pipeline is still running.",
          "type": "GroupLabel",
          "group_id": 10873929,
          "lock_on_merge": false
        },
        {
          "id": 30163298,
          "title": "CKI_Automotive::Warning",
          "color": "#6242ca",
          "project_id": null,
          "created_at": "2023-05-04 12:51:08 UTC",
          "updated_at": "2023-05-04 12:51:08 UTC",
          "template": false,
          "description": "This MR's latest non-blocking CKI_Automotive pipeline has failed.",
          "type": "GroupLabel",
          "group_id": 10873929,
          "lock_on_merge": false
        },
        {
          "id": 30219736,
          "title": "CKI_CentOS::Running",
          "color": "#CAC542",
          "project_id": null,
          "created_at": "2023-05-09 14:47:28 UTC",
          "updated_at": "2023-05-09 14:47:28 UTC",
          "template": false,
          "description": "This MR's latest CKI_CentOS pipeline is still running.",
          "type": "GroupLabel",
          "group_id": 10873929,
          "lock_on_merge": false
        },
        {
          "id": 30219735,
          "title": "CKI_RHEL::Running",
          "color": "#CAC542",
          "project_id": null,
          "created_at": "2023-05-09 14:47:26 UTC",
          "updated_at": "2023-05-09 14:47:26 UTC",
          "template": false,
          "description": "This MR's latest CKI_RHEL pipeline is still running.",
          "type": "GroupLabel",
          "group_id": 10873929,
          "lock_on_merge": false
        },
        {
          "id": 29409750,
          "title": "CKI_RT::Running",
          "color": "#CAC542",
          "project_id": null,
          "created_at": "2023-03-02 17:50:02 UTC",
          "updated_at": "2023-03-02 17:50:02 UTC",
          "template": false,
          "description": "This MR's latest CKI_RT pipeline is still running.",
          "type": "GroupLabel",
          "group_id": 10873929,
          "lock_on_merge": false
        },
        {
          "id": 21599523,
          "title": "CodeChanged::v2",
          "color": "#013220",
          "project_id": null,
          "created_at": "2021-09-07 10:09:01 UTC",
          "updated_at": "2021-09-07 10:09:01 UTC",
          "template": false,
          "description": "Code changed in v2 of this Merge Request.",
          "type": "GroupLabel",
          "group_id": 10873929,
          "lock_on_merge": false
        },
        {
          "id": 21460611,
          "title": "CommitRefs::OK",
          "color": "#428BCA",
          "project_id": null,
          "created_at": "2021-08-27 15:45:56 UTC",
          "updated_at": "2021-09-01 09:14:30 UTC",
          "template": false,
          "description": "All commits in this MR have valid upstream or RHEL-only commit references.",
          "type": "GroupLabel",
          "group_id": 10873929,
          "lock_on_merge": false
        },
        {
          "id": 21460498,
          "title": "Dependencies::OK",
          "color": "#428BCA",
          "project_id": null,
          "created_at": "2021-08-27 15:35:09 UTC",
          "updated_at": "2021-09-01 04:33:31 UTC",
          "template": false,
          "description": "This MR does not depend on any other MR.",
          "type": "GroupLabel",
          "group_id": 10873929,
          "lock_on_merge": false
        },
        {
          "id": 30384606,
          "title": "ExternalCI::OK",
          "color": "#428BCA",
          "project_id": null,
          "created_at": "2023-05-23 18:44:10 UTC",
          "updated_at": "2023-05-23 18:44:10 UTC",
          "template": false,
          "description": "All the subsystem-required testing has been completed.",
          "type": "GroupLabel",
          "group_id": 10873929,
          "lock_on_merge": false
        },
        {
          "id": 30376714,
          "title": "ExternalCI::lnst::OK",
          "color": "#428BCA",
          "project_id": null,
          "created_at": "2023-05-23 14:55:12 UTC",
          "updated_at": "2023-05-23 14:55:12 UTC",
          "template": false,
          "description": "The subsystem-required lnst testing has been completed.",
          "type": "GroupLabel",
          "group_id": 10873929,
          "lock_on_merge": false
        },
        {
          "id": 31078448,
          "title": "Fixes::OK",
          "color": "#428BCA",
          "project_id": null,
          "created_at": "2023-07-21 16:50:15 UTC",
          "updated_at": "2023-07-21 16:50:15 UTC",
          "template": false,
          "description": "All known upstream fixes for commits in this MR have been included.",
          "type": "GroupLabel",
          "group_id": 10873929,
          "lock_on_merge": false
        },
        {
          "id": 27471844,
          "title": "JIRA::NeedsTesting",
          "color": "#CAC542",
          "project_id": null,
          "created_at": "2022-10-21 06:45:28 UTC",
          "updated_at": "2023-09-28 19:26:25 UTC",
          "template": false,
          "description": "This MR is waiting for QE to test.  QE will set 'Preliminary Testing: Pass' in each JIRA Issue and any dependent Issues as they complete testing.",
          "type": "GroupLabel",
          "group_id": 10873929,
          "lock_on_merge": false
        },
        {
          "id": 29850651,
          "title": "Merge::OK",
          "color": "#428BCA",
          "project_id": null,
          "created_at": "2023-04-06 17:01:48 UTC",
          "updated_at": "2023-04-06 19:31:29 UTC",
          "template": false,
          "description": "This Merge Request merges cleanly into it's target branch.",
          "type": "GroupLabel",
          "group_id": 10873929,
          "lock_on_merge": false
        },
        {
          "id": 21460574,
          "title": "Signoff::OK",
          "color": "#428BCA",
          "project_id": null,
          "created_at": "2021-08-27 15:40:50 UTC",
          "updated_at": "2021-09-01 04:33:33 UTC",
          "template": false,
          "description": "The author has acknowledged the DCO (https://developercertificate.org).",
          "type": "GroupLabel",
          "group_id": 10873929,
          "lock_on_merge": false
        },
        {
          "id": 21525323,
          "title": "Subsystem:wireless",
          "color": "#778899",
          "project_id": null,
          "created_at": "2021-09-01 16:55:51 UTC",
          "updated_at": "2021-09-01 16:55:51 UTC",
          "template": false,
          "description": "An MR that affects code related to wireless.",
          "type": "GroupLabel",
          "group_id": 10873929,
          "lock_on_merge": false
        },
        {
          "id": 22697860,
          "title": "TargetedTestingMissing",
          "color": "#6242ca",
          "project_id": null,
          "created_at": "2021-11-22 19:50:18 UTC",
          "updated_at": "2022-02-10 17:42:34 UTC",
          "template": false,
          "description": "This MR's head pipeline does not include any Targeted Tests.",
          "type": "GroupLabel",
          "group_id": 10873929,
          "lock_on_merge": false
        }
      ]
    }
  },
  "repository": {
    "name": "centos-stream-9",
    "url": "git@gitlab.com:redhat/centos-stream/src/kernel/centos-stream-9.git",
    "description": "Source-git repo for the kernel.\r\n\r\nSee [documentation](https://gitlab.com/redhat/centos-stream/src/kernel/documentation) for information.  See [bugreports](https://gitlab.com/redhat/centos-stream/src/kernel/bugreports) for issues and mailing list info.",
    "homepage": "https://gitlab.com/redhat/centos-stream/src/kernel/centos-stream-9"
  },
  "assignees": [
    {
      "id": 8637363,
      "name": "Íñigo Huguet",
      "username": "ihuguet-rh",
      "avatar_url": "https://gitlab.com/uploads/-/system/user/avatar/8637363/avatar.png",
      "email": "ihuguet@redhat.com"
    }
  ]
}
