{
  "data": {
    "project": {
      "mr": {
        "approved": false,
        "author": {
          "gid": "gid://gitlab/User/6616462",
          "name": "Jarod Wilson",
          "email": "jarod@redhat.com",
          "username": "jwilsonrh"
        },
        "commitCount": 1,
        "description": "JIRA: https://issues.redhat.com/browse/RHEL-101  \n\nThis is a dummy merge request, please ignore it. There's an upstream Fixes: patch for the patch included in this MR, and I'm testing some things w/fixes detection and such.\n\nOmitted-fix: 7c28afd5512e371773dbb2bf95a31ed5625651d9  \nTesting, testing.  \n\nOmitted-fix: 6199d23c91ce53bfed455f09a8c5ed170d516824  \n\nSigned-off-by: Jarod Wilson <jarod@redhat.com>",
        "global_id": "gid://gitlab/MergeRequest/228770482",
        "labels": {
          "pageInfo": {
            "hasNextPage": false,
            "endCursor": "MTA"
          },
          "nodes": [
            {
              "title": "CKI::Failed"
            },
            {
              "title": "CKI_RHEL::Failed::build"
            },
            {
              "title": "CKI_RT::Warning"
            },
            {
              "title": "CommitRefs::OK"
            },
            {
              "title": "Dependencies::OK"
            },
            {
              "title": "Fixes::OK"
            },
            {
              "title": "JIRA::Missing"
            },
            {
              "title": "Merge::OK"
            },
            {
              "title": "Signoff::OK"
            },
            {
              "title": "Subsystem:hid"
            }
          ]
        },
        "state": "opened",
        "draft": true,
        "files": [
          {
            "path": "drivers/hid/hid-logitech-hidpp.c"
          }
        ],
        "preparedAt": "2023-06-06T19:18:12Z",
        "sourceBranch": "fixes-testing",
        "targetBranch": "main",
        "title": "Draft: HID: logitech-hidpp: Retry commands when device is busy",
        "headPipeline": {
          "id": "gid://gitlab/Ci::Pipeline/891430473"
        },
        "project": {
          "id": "gid://gitlab/Project/20363472"
        }
      }
    }
  }
}
