{
  "data": {
    "project": {
      "projectMembers": {
        "nodes": [
          {
            "user": {
              "username": "jwilsonrh"
            },
            "mergeRequestInteraction": {
              "canMerge": true
            }
          },
          {
            "user": {
              "username": "ptalbert"
            },
            "mergeRequestInteraction": {
              "canMerge": true
            }
          },
          {
            "user": {
              "username": "shadowman"
            },
            "mergeRequestInteraction": {
              "canMerge": false
            }
          }
        ]
      }
    }
  }
}
